    184 HLT_DiPFJetAve40_v2
    185 HLT_DiPFJetAve60_v2
    186 HLT_DiPFJetAve80_v2
    187 HLT_DiPFJetAve140_v2
    188 HLT_DiPFJetAve200_v2
    189 HLT_DiPFJetAve260_v2
    190 HLT_DiPFJetAve320_v2
    191 HLT_DiPFJetAve400_v2
    192 HLT_DiPFJetAve500_v2
HLTMonitor  184 HLT_DiPFJetAve40_v2
    184 HLT_DiPFJetAve40_v2
    185 HLT_DiPFJetAve60_v2
    186 HLT_DiPFJetAve80_v2
    187 HLT_DiPFJetAve140_v2
    188 HLT_DiPFJetAve200_v2
    189 HLT_DiPFJetAve260_v2
    190 HLT_DiPFJetAve320_v2
    191 HLT_DiPFJetAve400_v2
    192 HLT_DiPFJetAve500_v2
